{
    "os": "Linux-5.15.0-102-generic-x86_64-with-glibc2.35",
    "python": "3.10.12",
    "heartbeatAt": "2024-05-08T14:52:42.229160",
    "startedAt": "2024-05-08T14:52:41.432911",
    "docker": null,
    "cuda": null,
    "args": [],
    "state": "running",
    "program": "/graphics/scratch2/students/grosskop/i2i-tissue-staining-translation-x-diffusion/preparation/H-E-Diffusion/basic_training-LDM-1024.py",
    "codePathLocal": "basic_training-LDM-1024.py",
    "codePath": "preparation/H-E-Diffusion/basic_training-LDM-1024.py",
    "git": {
        "remote": "git@gitlab.com:ego34/i2i-tissue-staining-translation-x-diffusion.git",
        "commit": "61085ca55419a1dce71eeb4585e19e67e114baa4"
    },
    "email": "erik.grosskopf@mail.de",
    "root": "/graphics/scratch2/students/grosskop/i2i-tissue-staining-translation-x-diffusion",
    "host": "cgpool1906",
    "username": "grosskop",
    "executable": "/home/grosskop/grosskop-python-env/bin/python",
    "cpu_count": 8,
    "cpu_count_logical": 8,
    "cpu_freq": {
        "current": 2.725,
        "min": 800.0,
        "max": 4700.0
    },
    "cpu_freq_per_core": [
        {
            "current": 3.0,
            "min": 800.0,
            "max": 4700.0
        },
        {
            "current": 3.374,
            "min": 800.0,
            "max": 4700.0
        },
        {
            "current": 3.0,
            "min": 800.0,
            "max": 4700.0
        },
        {
            "current": 3.0,
            "min": 800.0,
            "max": 4700.0
        },
        {
            "current": 3.0,
            "min": 800.0,
            "max": 4700.0
        },
        {
            "current": 3.0,
            "min": 800.0,
            "max": 4700.0
        },
        {
            "current": 3.0,
            "min": 800.0,
            "max": 4700.0
        },
        {
            "current": 3.0,
            "min": 800.0,
            "max": 4700.0
        }
    ],
    "disk": {
        "/": {
            "total": 456.34544372558594,
            "used": 101.52864837646484
        }
    },
    "gpu": "NVIDIA GeForce RTX 2080 Ti",
    "gpu_count": 1,
    "gpu_devices": [
        {
            "name": "NVIDIA GeForce RTX 2080 Ti",
            "memory_total": 11811160064
        }
    ],
    "memory": {
        "total": 31.28057861328125
    }
}
